{
    "settings": {
        "number_of_shards": 5,
        "index.analysis.analyzer.default.type": "spanish"
    },
    "mappings": {
        "cr": {
            "properties": {
                "all_concepts_description": {
                    "type": "object",
                    "enabled": false,
                    "properties": {
                    }
                },
                "all_concepts_list": {
                    "type": "string",
                    "index": "not_analyzed",
                    "stored": "yes"
                },
                "antecedentes": {
                    "properties": {
                        "alcohol": {
                            "type": "string",
                            "index": "no",
                            "stored": "yes"
                        },
                        "anemia": {
                            "type": "string",
                            "index": "no",
                            "stored": "yes"
                        },
                        "angina_de_pecho": {
                            "type": "string",
                            "index": "no",
                            "stored": "yes"
                        },
                        "cancer": {
                            "type": "string",
                            "index": "no",
                            "stored": "yes"
                        },
                        "cancer_de_seno": {
                            "type": "string",
                            "index": "no",
                            "stored": "yes"
                        },
                        "cigarrillo": {
                            "type": "string",
                            "index": "no",
                            "stored": "yes"
                        },
                        "cigarrilo": {
                            "type": "string",
                            "index": "no",
                            "stored": "yes"
                        },
                        "diabetes": {
                            "type": "string",
                            "index": "no",
                            "stored": "yes"
                        },
                        "diabetes_mellitus": {
                            "type": "string",
                            "index": "no",
                            "stored": "yes"
                        },
                        "dislipidemia": {
                            "type": "string",
                            "index": "no",
                            "stored": "yes"
                        },
                        "dolor_de_cabeza": {
                            "type": "string",
                            "index": "no",
                            "stored": "yes"
                        },
                        "enfermedad_coronaria": {
                            "type": "string",
                            "index": "no",
                            "stored": "yes"
                        },
                        "enfermedad_coronaria_familiar": {
                            "type": "string",
                            "index": "no",
                            "stored": "yes"
                        },
                        "enfermedad_renal": {
                            "type": "string",
                            "index": "no",
                            "stored": "yes"
                        },
                        "exfumador": {
                            "type": "string",
                            "index": "no",
                            "stored": "yes"
                        },
                        "hepatitis_b": {
                            "type": "string",
                            "index": "no",
                            "stored": "yes"
                        },
                        "hipertension_arterial": {
                            "type": "string",
                            "index": "no",
                            "stored": "yes"
                        },
                        "hipertension_pulmonar": {
                            "type": "string",
                            "index": "no",
                            "stored": "yes"
                        },
                        "hta": {
                            "type": "string",
                            "index": "no",
                            "stored": "yes"
                        },
                        "obesidad": {
                            "type": "string",
                            "index": "no",
                            "stored": "yes"
                        },
                        "stress_-_hostilidad": {
                            "type": "string",
                            "index": "no",
                            "stored": "yes"
                        },
                        "tabaquismo": {
                            "type": "string",
                            "index": "no",
                            "stored": "yes"
                        },
                        "tiempo_tipo_licor": {
                            "type": "string",
                            "index": "no",
                            "stored": "yes"
                        }
                    }
                },
                "características_dermatológicas": {
                    "properties": {
                        "bordes": {
                            "type": "string",
                            "index": "no",
                            "stored": "yes"
                        },
                        "color": {
                            "type": "string",
                            "index": "no",
                            "stored": "yes"
                        },
                        "dias_de_evolucion": {
                            "type": "string",
                            "index": "no",
                            "stored": "yes"
                        },
                        "dimensiones": {
                            "type": "string",
                            "index": "no",
                            "stored": "yes"
                        },
                        "forma": {
                            "type": "string",
                            "index": "no",
                            "stored": "yes"
                        },
                        "localizacion": {
                            "type": "string",
                            "index": "no",
                            "stored": "yes"
                        },
                        "periferia": {
                            "type": "string",
                            "index": "no",
                            "stored": "yes"
                        },
                        "sensibilidad": {
                            "type": "string",
                            "index": "no",
                            "stored": "yes"
                        },
                        "sintomas": {
                            "type": "string",
                            "index": "no",
                            "stored": "yes"
                        },
                        "superficie": {
                            "type": "string",
                            "index": "no",
                            "stored": "yes"
                        },
                        "tipo_de_lesion": {
                            "type": "string",
                            "index": "no",
                            "stored": "yes"
                        },
                        "tipo_de_piel": {
                            "type": "string",
                            "index": "no",
                            "stored": "yes"
                        }
                    }
                },
                "cups": {
                    "type": "string",
                    "store": "yes",
                    "index": "analyzed",
                    "term_vector": "with_positions_offsets"
                },
                "especialidad": {
                    "type": "string",
                    "stored": "yes",
                    "index": "not_analyzed"
                },
                "examen_físico": {
                    "properties": {
                        "abdomen": {
                            "type": "string",
                            "index": "no",
                            "stored": "yes"
                        },
                        "cabeza": {
                            "type": "string",
                            "index": "no",
                            "stored": "yes"
                        },
                        "cuello": {
                            "type": "string",
                            "index": "no",
                            "stored": "yes"
                        },
                        "extremidades": {
                            "type": "string",
                            "index": "no",
                            "stored": "yes"
                        },
                        "paresias": {
                            "type": "string",
                            "index": "no",
                            "stored": "yes"
                        },
                        "piel_y_faneras": {
                            "type": "string",
                            "index": "no",
                            "stored": "yes"
                        },
                        "sistema_cardiovascular": {
                            "type": "string",
                            "index": "no",
                            "stored": "yes"
                        },
                        "sistema_respiratorio": {
                            "type": "string",
                            "index": "no",
                            "stored": "yes"
                        },
                        "tracto_vaginal": {
                            "type": "string",
                            "index": "no",
                            "stored": "yes"
                        }
                    }
                },
                "id": {
                    "type": "string",
                    "index": "not_analyzed",
                    "stored": "yes"
                },
                "observaciones": {
                    "properties": {
                        "antecedentes_de_cancer_en_el_hermano": {
                            "type": "string",
                            "index": "no",
                            "stored": "yes"
                        },
                        "antecedentes_de_cancer_en_el_padre": {
                            "type": "string",
                            "index": "no",
                            "stored": "yes"
                        },
                        "antecedentes_de_cancer_en_la_hija": {
                            "type": "string",
                            "index": "no",
                            "stored": "yes"
                        },
                        "antecedentes_de_cancer_en_la_madre": {
                            "type": "string",
                            "index": "no",
                            "stored": "yes"
                        },
                        "antecedentes_de_cancer_en_la_tia": {
                            "type": "string",
                            "index": "no",
                            "stored": "yes"
                        },
                        "antecedentes_de_cancer_en_otros_familiares": {
                            "type": "string",
                            "index": "no",
                            "stored": "yes"
                        },
                        "bordes": {
                            "type": "string",
                            "index": "no",
                            "stored": "yes"
                        },
                        "color": {
                            "type": "string",
                            "index": "no",
                            "stored": "yes"
                        },
                        "descripción": {
                            "type": "string",
                            "store": "yes",
                            "index": "analyzed",
                            "term_vector": "with_positions_offsets"
                        },
                        "dias_de_evolucion": {
                            "type": "string",
                            "index": "no",
                            "stored": "yes"
                        },
                        "dimensiones": {
                            "type": "string",
                            "index": "no",
                            "stored": "yes"
                        },
                        "examen_fisico": {
                            "type": "string",
                            "index": "no",
                            "stored": "yes"
                        },
                        "examen_neurologico": {
                            "type": "string",
                            "index": "no",
                            "stored": "yes"
                        },
                        "fecha": {
                            "type": "date",
                            "format": "dateOptionalTime"
                        },
                        "fecha_&uacute;ltimo_examen": {
                            "type": "date",
                            "format": "dateOptionalTime"
                        },
                        "fecha_de_toma_de_las_placas": {
                            "type": "date",
                            "format": "dateOptionalTime"
                        },
                        "forma": {
                            "type": "string",
                            "index": "no",
                            "stored": "yes"
                        },
                        "frecuencia_cardiaca": {
                            "type": "string",
                            "index": "no",
                            "stored": "yes"
                        },
                        "frecuencia_respiratoria": {
                            "type": "string",
                            "index": "no",
                            "stored": "yes"
                        },
                        "localizacion": {
                            "type": "string",
                            "index": "no",
                            "stored": "yes"
                        },
                        "material_enviado": {
                            "type": "string",
                            "index": "no",
                            "stored": "yes"
                        },
                        "n&uacute;mero_de_hijos": {
                            "type": "string",
                            "index": "no",
                            "stored": "yes"
                        },
                        "numero_de_placas": {
                            "type": "string",
                            "index": "no",
                            "stored": "yes"
                        },
                        "observaciones": {
                            "type": "string",
                            "store": "yes",
                            "index": "analyzed",
                            "term_vector": "with_positions_offsets"
                        },
                        "otros": {
                            "type": "string",
                            "index": "no",
                            "stored": "yes"
                        },
                        "otros_estudios": {
                            "type": "string",
                            "index": "no",
                            "stored": "yes"
                        },
                        "periferia": {
                            "type": "string",
                            "index": "no",
                            "stored": "yes"
                        },
                        "peso": {
                            "type": "string",
                            "index": "no",
                            "stored": "yes"
                        },
                        "sensibilidad": {
                            "type": "string",
                            "index": "no",
                            "stored": "yes"
                        },
                        "servicio": {
                            "type": "string",
                            "index": "no",
                            "stored": "yes"
                        },
                        "sintomas": {
                            "type": "string",
                            "index": "no",
                            "stored": "yes"
                        },
                        "superficie": {
                            "type": "string",
                            "index": "no",
                            "stored": "yes"
                        },
                        "talla": {
                            "type": "string",
                            "index": "no",
                            "stored": "yes"
                        },
                        "temperatura": {
                            "type": "string",
                            "index": "no",
                            "stored": "yes"
                        },
                        "tension_arterial": {
                            "type": "string",
                            "index": "no",
                            "stored": "yes"
                        },
                        "tension_arterial_d": {
                            "type": "string",
                            "index": "no",
                            "stored": "yes"
                        },
                        "tension_arterial_s": {
                            "type": "string",
                            "index": "no",
                            "stored": "yes"
                        },
                        "texto": {
                            "type": "string",
                            "store": "yes",
                            "index": "analyzed",
                            "term_vector": "with_positions_offsets"
                        },
                        "tiempo_de_evolucion": {
                            "type": "string",
                            "index": "no",
                            "stored": "yes"
                        },
                        "tipo_de_lesion": {
                            "type": "string",
                            "index": "no",
                            "stored": "yes"
                        },
                        "tipo_de_piel": {
                            "type": "string",
                            "index": "no",
                            "stored": "yes"
                        },
                        "¿ciclo_menstrual?": {
                            "type": "string",
                            "index": "no",
                            "stored": "yes"
                        },
                        "¿cirugia_previa_del_seno_derecho,_extracci&oacute;n_biopsias?": {
                            "type": "string",
                            "index": "no",
                            "stored": "yes"
                        },
                        "¿cirugia_previa_del_seno_izquierdo,_extracci&oacute;n_biopsias?": {
                            "type": "string",
                            "index": "no",
                            "stored": "yes"
                        },
                        "¿cuando_fue_su_&uacute;ltimo_periodo?": {
                            "type": "date",
                            "format": "dateOptionalTime"
                        },
                        "¿debido_a_una_histerectomia?": {
                            "type": "string",
                            "index": "no",
                            "stored": "yes"
                        },
                        "¿le_han_practicado_alguna_mamografia?": {
                            "type": "string",
                            "index": "no",
                            "stored": "yes"
                        },
                        "¿masa_en_el_seno_derecho?": {
                            "type": "string",
                            "index": "no",
                            "stored": "yes"
                        },
                        "¿masa_en_el_seno_izquierdo?": {
                            "type": "string",
                            "index": "no",
                            "stored": "yes"
                        },
                        "¿molestia,_dolor_o_ardor?_(seno_derecho)": {
                            "type": "string",
                            "index": "no",
                            "stored": "yes"
                        },
                        "¿molestia,_dolor_o_ardor?_(seno_izquierdo)": {
                            "type": "string",
                            "index": "no",
                            "stored": "yes"
                        },
                        "¿natural?": {
                            "type": "string",
                            "index": "no",
                            "stored": "yes"
                        },
                        "¿planifica_regularmente_con_pastillas_u_hormonas?": {
                            "type": "string",
                            "index": "no",
                            "stored": "yes"
                        },
                        "¿por_cuanto_tiempo?_(planificacion)": {
                            "type": "string",
                            "index": "no",
                            "stored": "yes"
                        },
                        "¿practica_su_auto_examen_mensualmente?": {
                            "type": "string",
                            "index": "no",
                            "stored": "yes"
                        },
                        "¿secreci&oacute;n_o_sangrado?_(seno_derecho)": {
                            "type": "string",
                            "index": "no",
                            "stored": "yes"
                        },
                        "¿secreci&oacute;n_o_sangrado?_(seno_izquierdo)": {
                            "type": "string",
                            "index": "no",
                            "stored": "yes"
                        }
                    }
                },
                "paraclinicos": {
                    "properties": {
                        "citologia": {
                            "type": "string",
                            "index": "no",
                            "stored": "yes"
                        },
                        "ecografia": {
                            "type": "string",
                            "index": "no",
                            "stored": "yes"
                        },
                        "electrocardiograma": {
                            "type": "string",
                            "index": "no",
                            "stored": "yes"
                        },
                        "enzimas_cardiacas": {
                            "type": "string",
                            "index": "no",
                            "stored": "yes"
                        },
                        "fondo": {
                            "type": "string",
                            "index": "no",
                            "stored": "yes"
                        },
                        "otros": {
                            "type": "string",
                            "index": "no",
                            "stored": "yes"
                        },
                        "ovario_derecho": {
                            "type": "string",
                            "index": "no",
                            "stored": "yes"
                        },
                        "ovario_izquierdo": {
                            "type": "string",
                            "index": "no",
                            "stored": "yes"
                        },
                        "piel_y_faneras": {
                            "type": "string",
                            "index": "no",
                            "stored": "yes"
                        },
                        "radiografias": {
                            "type": "string",
                            "index": "no",
                            "stored": "yes"
                        },
                        "troponinas": {
                            "type": "string",
                            "index": "no",
                            "stored": "yes"
                        },
                        "uroanalisis_": {
                            "type": "string",
                            "index": "no",
                            "stored": "yes"
                        },
                        "utero": {
                            "type": "string",
                            "index": "no",
                            "stored": "yes"
                        }
                    }
                },
                "respuestas": {
                    "properties": {
                        "cie-1": {
                            "type": "string",
                            "index": "no",
                            "stored": "yes"
                        },
                        "cie-2": {
                            "type": "string",
                            "index": "no",
                            "stored": "yes"
                        },
                        "cie-3": {
                            "type": "string",
                            "index": "no",
                            "stored": "yes"
                        },
                        "cie-4": {
                            "type": "string",
                            "index": "no",
                            "stored": "yes"
                        },
                        "cie-5": {
                            "type": "string",
                            "index": "no",
                            "stored": "yes"
                        },
                        "cie-6": {
                            "type": "string",
                            "index": "no",
                            "stored": "yes"
                        },
                        "conclusion": {
                            "type": "string",
                            "store": "yes",
                            "index": "analyzed",
                            "term_vector": "with_positions_offsets"
                        },
                        "entrada-1": {
                            "type": "string",
                            "store": "yes",
                            "index": "analyzed",
                            "term_vector": "with_positions_offsets"
                        },
                        "entrada-2": {
                            "type": "string",
                            "store": "yes",
                            "index": "analyzed",
                            "term_vector": "with_positions_offsets"
                        },
                        "texto": {
                            "type": "string",
                            "store": "yes",
                            "index": "analyzed",
                            "term_vector": "with_positions_offsets"
                        },
                        "titulo": {
                            "type": "string",
                            "store": "yes",
                            "index": "analyzed",
                            "term_vector": "with_positions_offsets"
                        },
                        "valor": {
                            "type": "string",
                            "index": "no",
                            "stored": "yes"
                        }
                    }
                },
                "revision_por_sistemas": {
                    "properties": {
                        "cambios_en_el_peso": {
                            "type": "string",
                            "index": "no",
                            "stored": "yes"
                        },
                        "cefalea": {
                            "type": "string",
                            "index": "no",
                            "stored": "yes"
                        },
                        "diaforesis": {
                            "type": "string",
                            "index": "no",
                            "stored": "yes"
                        },
                        "diarrea": {
                            "type": "string",
                            "index": "no",
                            "stored": "yes"
                        },
                        "disfagia": {
                            "type": "string",
                            "index": "no",
                            "stored": "yes"
                        },
                        "disnea": {
                            "type": "string",
                            "index": "no",
                            "stored": "yes"
                        },
                        "disnea_de_esfuerzo": {
                            "type": "string",
                            "index": "no",
                            "stored": "yes"
                        },
                        "disnea_paroxistica_noctura": {
                            "type": "string",
                            "index": "no",
                            "stored": "yes"
                        },
                        "disuria": {
                            "type": "string",
                            "index": "no",
                            "stored": "yes"
                        },
                        "dolor_en_fosas_lumbares": {
                            "type": "string",
                            "index": "no",
                            "stored": "yes"
                        },
                        "edema_de_miembros_inferiores": {
                            "type": "string",
                            "index": "no",
                            "stored": "yes"
                        },
                        "expectoracion": {
                            "type": "string",
                            "index": "no",
                            "stored": "yes"
                        },
                        "fiebre": {
                            "type": "string",
                            "index": "no",
                            "stored": "yes"
                        },
                        "hematuria": {
                            "type": "string",
                            "index": "no",
                            "stored": "yes"
                        },
                        "hemoptisis": {
                            "type": "string",
                            "index": "no",
                            "stored": "yes"
                        },
                        "intolerancia_al_calor": {
                            "type": "string",
                            "index": "no",
                            "stored": "yes"
                        },
                        "intolerancia_al_frio": {
                            "type": "string",
                            "index": "no",
                            "stored": "yes"
                        },
                        "malestar_general": {
                            "type": "string",
                            "index": "no",
                            "stored": "yes"
                        },
                        "mareos": {
                            "type": "string",
                            "index": "no",
                            "stored": "yes"
                        },
                        "melenas": {
                            "type": "string",
                            "index": "no",
                            "stored": "yes"
                        },
                        "nauseas": {
                            "type": "string",
                            "index": "no",
                            "stored": "yes"
                        },
                        "nicturia": {
                            "type": "string",
                            "index": "no",
                            "stored": "yes"
                        },
                        "ortopnea": {
                            "type": "string",
                            "index": "no",
                            "stored": "yes"
                        },
                        "paresias": {
                            "type": "string",
                            "index": "no",
                            "stored": "yes"
                        },
                        "perdida_de_peso": {
                            "type": "string",
                            "index": "no",
                            "stored": "yes"
                        },
                        "pirosis": {
                            "type": "string",
                            "index": "no",
                            "stored": "yes"
                        },
                        "poliaquiuria": {
                            "type": "string",
                            "index": "no",
                            "stored": "yes"
                        },
                        "poliuria": {
                            "type": "string",
                            "index": "no",
                            "stored": "yes"
                        },
                        "problemas_de_coordinacion": {
                            "type": "string",
                            "index": "no",
                            "stored": "yes"
                        },
                        "sequedad_de_la_piel": {
                            "type": "string",
                            "index": "no",
                            "stored": "yes"
                        },
                        "somnolencia": {
                            "type": "string",
                            "index": "no",
                            "stored": "yes"
                        },
                        "temblor_fino": {
                            "type": "string",
                            "index": "no",
                            "stored": "yes"
                        },
                        "tos": {
                            "type": "string",
                            "index": "no",
                            "stored": "yes"
                        },
                        "vomito": {
                            "type": "string",
                            "index": "no",
                            "stored": "yes"
                        }
                    }
                },
                "signos_vitales": {
                    "properties": {
                        "frecuencia_cardiaca": {
                            "type": "string",
                            "index": "no",
                            "stored": "yes"
                        },
                        "frecuencia_respiratoria": {
                            "type": "string",
                            "index": "no",
                            "stored": "yes"
                        },
                        "temperatura": {
                            "type": "string",
                            "index": "no",
                            "stored": "yes"
                        },
                        "tension_arterial": {
                            "type": "string",
                            "index": "no",
                            "stored": "yes"
                        }
                    }
                },
                "concepts_by_field": {
                    "properties": {
                        "caracteristicas_dermatologicas-localizacion": {
                            "type": "string",
                            "index": "no",
                            "stored": "yes"
                        },
                        "características_dermatologicas-periferia": {
                            "type": "string",
                            "index": "no",
                            "stored": "yes"
                        },
                        "características_dermatologicas-sintomas": {
                            "type": "string",
                            "index": "no",
                            "stored": "yes"
                        },
                        "características_dermatologicas-tipo_de_lesion": {
                            "type": "string",
                            "index": "no",
                            "stored": "yes"
                        },
                        "cups": {
                            "type": "string",
                            "index": "no",
                            "stored": "yes"
                        },
                        "examen_fisico-abdomen": {
                            "type": "string",
                            "index": "no",
                            "stored": "yes"
                        },
                        "examen_fisico-cabeza": {
                            "type": "string",
                            "index": "no",
                            "stored": "yes"
                        },
                        "examen_fisico-cuello": {
                            "type": "string",
                            "index": "no",
                            "stored": "yes"
                        },
                        "examen_fisico-extremidades": {
                            "type": "string",
                            "index": "no",
                            "stored": "yes"
                        },
                        "examen_fisico-paresias": {
                            "type": "string",
                            "index": "no",
                            "stored": "yes"
                        },
                        "examen_fisico-piel_y_faneras": {
                            "type": "string",
                            "index": "no",
                            "stored": "yes"
                        },
                        "examen_fisico-sistema_cardiovascular": {
                            "type": "string",
                            "index": "no",
                            "stored": "yes"
                        },
                        "examen_fisico-sistema_respiratorio": {
                            "type": "string",
                            "index": "no",
                            "stored": "yes"
                        },
                        "examen_fisico-tracto_vaginal": {
                            "type": "string",
                            "index": "no",
                            "stored": "yes"
                        },
                        "observaciones-descripcion": {
                            "type": "string",
                            "index": "no",
                            "stored": "yes"
                        },
                        "observaciones-examen_fisico": {
                            "type": "string",
                            "index": "no",
                            "stored": "yes"
                        },
                        "observaciones-examen_neurologico": {
                            "type": "string",
                            "index": "no",
                            "stored": "yes"
                        },
                        "observaciones-localizacion": {
                            "type": "string",
                            "index": "no",
                            "stored": "yes"
                        },
                        "observaciones-otros": {
                            "type": "string",
                            "index": "no",
                            "stored": "yes"
                        },
                        "observaciones-periferia": {
                            "type": "string",
                            "index": "no",
                            "stored": "yes"
                        },
                        "observaciones-sintomas": {
                            "type": "string",
                            "index": "no",
                            "stored": "yes"
                        },
                        "observaciones-texto": {
                            "type": "string",
                            "index": "no",
                            "stored": "yes"
                        },
                        "observaciones-tipo_de_lesion": {
                            "type": "string",
                            "index": "no",
                            "stored": "yes"
                        },
                        "paraclinicos-citologia": {
                            "type": "string",
                            "index": "no",
                            "stored": "yes"
                        },
                        "paraclinicos-ecografia": {
                            "type": "string",
                            "index": "no",
                            "stored": "yes"
                        },
                        "paraclinicos-electrocardiograma": {
                            "type": "string",
                            "index": "no",
                            "stored": "yes"
                        },
                        "paraclinicos-otros": {
                            "type": "string",
                            "index": "no",
                            "stored": "yes"
                        },
                        "paraclinicos-radiografias": {
                            "type": "string",
                            "index": "no",
                            "stored": "yes"
                        },
                        "respuestas-cie_1": {
                            "type": "string",
                            "index": "no",
                            "stored": "yes"
                        },
                        "respuestas-cie_2": {
                            "type": "string",
                            "index": "no",
                            "stored": "yes"
                        },
                        "respuestas-cie_3": {
                            "type": "string",
                            "index": "no",
                            "stored": "yes"
                        },
                        "respuestas-cie_4": {
                            "type": "string",
                            "index": "no",
                            "stored": "yes"
                        },
                        "respuestas-cie_5": {
                            "type": "string",
                            "index": "no",
                            "stored": "yes"
                        },
                        "respuestas-cie_6": {
                            "type": "string",
                            "index": "no",
                            "stored": "yes"
                        },
                        "respuestas-entrada_1": {
                            "type": "string",
                            "index": "no",
                            "stored": "yes"
                        },
                        "respuestas-entrada_2": {
                            "type": "string",
                            "index": "no",
                            "stored": "yes"
                        },
                        "respuestas-texto": {
                            "type": "string",
                            "index": "no",
                            "stored": "yes"
                        },
                        "respuestas-titulo": {
                            "type": "string",
                            "index": "no",
                            "stored": "yes"
                        },
                        "texto": {
                            "type": "string",
                            "index": "no",
                            "stored": "yes"
                        },
                        "titulo": {
                            "type": "string",
                            "index": "no",
                            "stored": "yes"
                        }
                    }
                },
                "texto": {
                    "type": "string",
                    "store": "yes",
                    "index": "analyzed",
                    "term_vector": "with_positions_offsets"
                },
                "titulo": {
                    "type": "string",
                    "store": "yes",
                    "index": "analyzed",
                    "term_vector": "with_positions_offsets"
                }
            }
        }
    }
}